<?xml version="1.0" standalone="no"?>
<!DOCTYPE svg PUBLIC "-//W3C//DTD SVG 1.1//EN" "http://www.w3.org/Graphics/SVG/1.1/DTD/svg11.dtd">
<svg xmlns="http://www.w3.org/2000/svg">
<metadata>Copyright (C) 2015 by original authors @ fontello.com</metadata>
<defs>
<font id="fontello" horiz-adv-x="1000" >
<font-face font-family="fontello" font-weight="400" font-stretch="normal" units-per-em="1000" ascent="850" descent="-150" />
<missing-glyph horiz-adv-x="1000" />
<glyph glyph-name="vcard" unicode="&#xe800;" d="m990-66l-834 0q-65 0-110 46t-46 110l0 520q0 65 46 111t110 46l834 0q65 0 111-46t45-111l0-520q0-65-45-110t-111-46z m-834 729q-21 0-37-16t-15-37l0-520q0-21 15-37t37-15l834 0q21 0 36 15t15 37l0 520q0 22-15 37t-36 16l-834 0z m313-469l-209 0q-21 0-36 16t-15 37 15 36 36 15l209 0q21 0 37-15t15-36-15-37-37-16z m0 209l-209 0q-21 0-36 15t-15 36 15 37 36 16l209 0q21 0 37-16t15-37-15-36-37-15z m209 25q0 105 103 105t104-105q0-104-104-104t-103 104z m103-148q57 0 93-22t37-53q0-15-37-26t-93-11q-58 0-94 11t-36 26q0 30 36 53t94 22z" horiz-adv-x="1146" />
<glyph glyph-name="table" unicode="&#xe801;" d="m286 82v107q0 8-5 13t-13 5h-179q-7 0-13-5t-5-13v-107q0-8 5-13t13-5h179q8 0 13 5t5 13z m0 214v108q0 7-5 12t-13 5h-179q-7 0-13-5t-5-12v-108q0-7 5-12t13-5h179q8 0 13 5t5 12z m285-214v107q0 8-5 13t-12 5h-179q-8 0-13-5t-5-13v-107q0-8 5-13t13-5h179q7 0 12 5t5 13z m-285 429v107q0 8-5 13t-13 5h-179q-7 0-13-5t-5-13v-107q0-8 5-13t13-5h179q8 0 13 5t5 13z m285-215v108q0 7-5 12t-12 5h-179q-8 0-13-5t-5-12v-108q0-7 5-12t13-5h179q7 0 12 5t5 12z m286-214v107q0 8-5 13t-13 5h-178q-8 0-13-5t-5-13v-107q0-8 5-13t13-5h178q8 0 13 5t5 13z m-286 429v107q0 8-5 13t-12 5h-179q-8 0-13-5t-5-13v-107q0-8 5-13t13-5h179q7 0 12 5t5 13z m286-215v108q0 7-5 12t-13 5h-178q-8 0-13-5t-5-12v-108q0-7 5-12t13-5h178q8 0 13 5t5 12z m0 215v107q0 8-5 13t-13 5h-178q-8 0-13-5t-5-13v-107q0-8 5-13t13-5h178q8 0 13 5t5 13z m72 178v-607q0-37-27-63t-63-26h-750q-36 0-63 26t-26 63v607q0 37 26 63t63 27h750q37 0 63-27t27-63z" horiz-adv-x="928.6" />
<glyph glyph-name="keyboard" unicode="&#xe802;" d="m930 650q28 0 49-21t21-49l0-460q0-30-21-50t-49-20l-860 0q-28 0-49 20t-21 50l0 460q0 28 21 49t49 21l860 0z m-380-100l0-100 100 0 0 100-100 0z m150-150l-100 0 0-100 100 0 0 100z m-300 150l0-100 100 0 0 100-100 0z m150-150l-100 0 0-100 100 0 0 100z m-300 150l0-100 100 0 0 100-100 0z m150-150l-100 0 0-100 100 0 0 100z m-300 150l0-100 100 0 0 100-100 0z m150-150l-100 0 0-100 100 0 0 100z m-50-250l0 100-100 0 0-100 100 0z m550 0l0 100-500 0 0-100 500 0z m150 0l0 100-100 0 0-100 100 0z m-150 150l100 0 0 100-100 0 0-100z m150 150l0 100-200 0 0-100 200 0z" horiz-adv-x="1000" />
<glyph glyph-name="mobile" unicode="&#xe803;" d="m480 840q42 0 71-29t29-71l0-780q0-40-29-70t-71-30l-380 0q-40 0-70 30t-30 70l0 780q0 42 30 71t70 29l380 0z m-190-940q30 0 50 15t20 35q0 22-20 36t-50 14q-28 0-49-15t-21-35 21-35 49-15z m210 150l0 660-420 0 0-660 420 0z" horiz-adv-x="580" />
<glyph glyph-name="download" unicode="&#xe804;" d="m714 100q0 15-10 25t-25 11-26-11-10-25 10-25 26-11 25 11 10 25z m143 0q0 15-10 25t-26 11-25-11-10-25 10-25 25-11 26 11 10 25z m72 125v-179q0-22-16-37t-38-16h-821q-23 0-38 16t-16 37v179q0 22 16 38t38 16h259l75-76q33-32 76-32t76 32l76 76h259q22 0 38-16t16-38z m-182 318q10-23-8-40l-250-250q-10-10-25-10t-25 10l-250 250q-17 17-8 40 10 21 33 21h143v250q0 15 11 25t25 11h143q14 0 25-11t10-25v-250h143q24 0 33-21z" horiz-adv-x="928.6" />
<glyph glyph-name="location" unicode="&#xe805;" d="m0 473q0 156 110 267t267 110 267-110 110-267q0-123-53-193l-324-430-324 430q-53 70-53 193z m219 0q0-66 46-112t112-46 112 46 46 112-46 112-112 46-112-46-46-112z" horiz-adv-x="754" />
</font>
</defs>
</svg>