{
  "name": "",
  "css_prefix_text": "icon-",
  "css_use_suffix": false,
  "hinting": true,
  "units_per_em": 1000,
  "ascent": 850,
  "glyphs": [
    {
      "uid": "9a76bc135eac17d2c8b8ad4a5774fc87",
      "css": "download",
      "code": 59396,
      "src": "fontawesome"
    },
    {
      "uid": "8fb55fd696d9a0f58f3b27c1d8633750",
      "css": "table",
      "code": 59393,
      "src": "fontawesome"
    },
    {
      "uid": "005a38f6af74b31aeb817fedb09d2175",
      "css": "keyboard",
      "code": 59394,
      "src": "entypo"
    },
    {
      "uid": "767fede84586366cd7d6c835be745454",
      "css": "mobile",
      "code": 59395,
      "src": "entypo"
    },
    {
      "uid": "933f454f9d3342a055217fd695475d44",
      "css": "vcard",
      "code": 59392,
      "src": "typicons"
    },
    {
      "uid": "22cfc7af2c4f158b37317c65c92b48c2",
      "css": "location",
      "code": 59397,
      "src": "elusive"
    }
  ]
}